{
    "mongo": {
        "enabled": true,
        "use_defaults": false,
        "srv": true,
        "host": "localhost",
        "port": 27017,
        "user": "",
        "pass": "",
        "db": ""
    },
    "api": {
        "port": 3000
    }
}